\select@language {ngerman}
\contentsline {chapter}{\numberline {1}Einleitung}{6}{chapter.1}
\contentsline {chapter}{\numberline {2}Hauptteil}{7}{chapter.2}
\contentsline {chapter}{\numberline {3}Schluss}{8}{chapter.3}
\contentsline {chapter}{\numberline {A}Anhang}{9}{appendix.A}
